Reading Delimited Data – Homework 4 Site
…
Step 1 — Read from URL + add column names

glass_url <- "https://www4.stat.ncsu.edu/~online/datasets/glass.data"

# Assign meaningful column names (dataset lacks headers).
glass <- read_csv(
  glass_url,
  col_names = c("Id","RI","Na","Mg","Al","Si","K","Ca","Ba","Fe","Type"),
  show_col_types = FALSE
)

# print data
glass

# A tibble: 214 × 11
      Id    RI    Na    Mg    Al    Si     K    Ca    Ba    Fe  Type
   <dbl> <dbl> <dbl> <dbl> <dbl> <dbl> <dbl> <dbl> <dbl> <dbl> <dbl>
 1     1  1.52  13.6  4.49  1.1   71.8  0.06  8.75     0  0        1
 2     2  1.52  13.9  3.6   1.36  72.7  0.48  7.83     0  0        1
 3     3  1.52  13.5  3.55  1.54  73.0  0.39  7.78     0  0        1
 4     4  1.52  13.2  3.69  1.29  72.6  0.57  8.22     0  0        1
 5     5  1.52  13.3  3.62  1.24  73.1  0.55  8.07     0  0        1
 6     6  1.52  12.8  3.61  1.62  73.0  0.64  8.07     0  0.26     1
 7     7  1.52  13.3  3.6   1.14  73.1  0.58  8.17     0  0        1
 8     8  1.52  13.2  3.61  1.05  73.2  0.57  8.24     0  0        1
 9     9  1.52  14.0  3.58  1.37  72.1  0.56  8.3      0  0        1
10    10  1.52  13    3.6   1.36  73.0  0.57  8.4      0  0.11     1
# ℹ 204 more rows
…
glass2

# A tibble: 38 × 11
      Id    RI    Na    Mg    Al    Si     K    Ca    Ba    Fe Type     
   <dbl> <dbl> <dbl> <dbl> <dbl> <dbl> <dbl> <dbl> <dbl> <dbl> <chr>    
 1   177  1.52  14    2.39  1.56  72.4  0     9.57  0        0 tableware
 2   178  1.52  13.8  2.41  1.19  72.8  0     9.77  0        0 tableware
 3   179  1.52  14.5  2.24  1.62  72.4  0     9.26  0        0 tableware
 4   180  1.52  14.1  2.19  1.66  72.7  0     9.32  0        0 tableware
 5   181  1.51  14.4  1.74  1.54  74.6  0     7.59  0        0 tableware
 6   182  1.52  15.0  0.78  1.74  72.5  0     9.95  0        0 tableware
 7   183  1.52  14.2  0     2.09  72.7  0    10.9   0        0 tableware
 8   184  1.52  14.6  0     0.56  73.5  0    11.2   0        0 tableware
 9   185  1.51  17.4  0     0.34  75.4  0     6.65  0        0 tableware
10   186  1.51  13.7  3.2   1.81  72.8  1.76  5.43  1.19     0 headlamps
# ℹ 28 more rows
…
yeast

# A tibble: 1,484 × 10
   seq_name     mcg   gvh   alm   mit   erl   pox   vac   nuc class
   <chr>      <dbl> <dbl> <dbl> <dbl> <dbl> <dbl> <dbl> <dbl> <chr>
 1 ADT1_YEAST  0.58  0.61  0.47  0.13   0.5   0    0.48  0.22 MIT  
 2 ADT2_YEAST  0.43  0.67  0.48  0.27   0.5   0    0.53  0.22 MIT  
 3 ADT3_YEAST  0.64  0.62  0.49  0.15   0.5   0    0.53  0.22 MIT  
 4 AAR2_YEAST  0.58  0.44  0.57  0.13   0.5   0    0.54  0.22 NUC  
 5 AATM_YEAST  0.42  0.44  0.48  0.54   0.5   0    0.48  0.22 MIT  
 6 AATC_YEAST  0.51  0.4   0.56  0.17   0.5   0.5  0.49  0.22 CYT  
 7 ABC1_YEAST  0.5   0.54  0.48  0.65   0.5   0    0.53  0.22 MIT  
 8 BAF1_YEAST  0.48  0.45  0.59  0.2    0.5   0    0.58  0.34 NUC  
 9 ABF2_YEAST  0.55  0.5   0.66  0.36   0.5   0    0.49  0.22 MIT  
10 ABP1_YEAST  0.4   0.39  0.6   0.15   0.5   0    0.58  0.3  CYT  
# ℹ 1,474 more rows
…
yeast2

# A tibble: 1,484 × 22
     mcg   gvh   alm   mit   erl   pox   vac class mcg_mean mcg_median gvh_mean
   <dbl> <dbl> <dbl> <dbl> <dbl> <dbl> <dbl> <chr>    <dbl>      <dbl>    <dbl>
 1  0.58  0.61  0.47  0.13   0.5   0    0.48 MIT      0.521       0.51    0.533
 2  0.43  0.67  0.48  0.27   0.5   0    0.53 MIT      0.521       0.51    0.533
 3  0.64  0.62  0.49  0.15   0.5   0    0.53 MIT      0.521       0.51    0.533
 4  0.58  0.44  0.57  0.13   0.5   0    0.54 NUC      0.452       0.45    0.456
 5  0.42  0.44  0.48  0.54   0.5   0    0.48 MIT      0.521       0.51    0.533
 6  0.51  0.4   0.56  0.17   0.5   0.5  0.49 CYT      0.481       0.48    0.470
 7  0.5   0.54  0.48  0.65   0.5   0    0.53 MIT      0.521       0.51    0.533
 8  0.48  0.45  0.59  0.2    0.5   0    0.58 NUC      0.452       0.45    0.456
 9  0.55  0.5   0.66  0.36   0.5   0    0.49 MIT      0.521       0.51    0.533
10  0.4   0.39  0.6   0.15   0.5   0    0.58 CYT      0.481       0.48    0.470
# ℹ 1,474 more rows
# ℹ 11 more variables: gvh_median <dbl>, alm_mean <dbl>, alm_median <dbl>,
#   mit_mean <dbl>, mit_median <dbl>, erl_mean <dbl>, erl_median <dbl>,
#   pox_mean <dbl>, pox_median <dbl>, vac_mean <dbl>, vac_median <dbl>
